deliverable2
…
## See spec(...) for full column specifications.

NBA_box_stats <- NBA_box_stats %>% rename("PLUS/MINUS" = "#ERROR!")
NBA_box_stats <- NBA_box_stats %>% rename("THREE_PTM" = "3:00 PM")
NBA_box_stats <- NBA_box_stats %>% rename("THREE_PTA" = "3PA")
NBA_box_stats <- NBA_box_stats %>% rename("THREE_PTPERCENT" = "3P%")
NBA_box_stats <- NBA_box_stats %>% rename("FG_PERCENT" = "FG%")
NBA_box_stats <- NBA_box_stats %>% rename("FT_PERCENT" = "FT%")
NBA_box_stats <- NBA_box_stats %>% rename("W_or_L" = "W/L")
NBA_box_stats

## # A tibble: 2,460 x 24
##    Team  `Match Up` `Game Date` W_or_L   MIN   PTS   FGM   FGA FG_PERCENT
##    <chr> <chr>      <chr>       <chr>  <dbl> <dbl> <dbl> <dbl>      <dbl>
##  1 MEM   MEM vs. G~ 04/10/2019  W        240   132    48    98       49  
##  2 GSW   GSW @ MEM  04/10/2019  L        240   117    46    92       50  
##  3 CHA   CHA vs. O~ 04/10/2019  L        240   114    41    78       52.6
##  4 ORL   ORL @ CHA  04/10/2019  W        240   122    48    88       54.5
##  5 MIN   MIN @ DEN  04/10/2019  L        240    95    39    91       42.9
##  6 DEN   DEN vs. M~ 04/10/2019  W        240    99    39    87       44.8
##  7 MIL   MIL vs. O~ 04/10/2019  L        240   116    43   100       43  
##  8 OKC   OKC @ MIL  04/10/2019  W        240   127    48    99       48.5
##  9 IND   IND @ ATL  04/10/2019  W        240   135    45    98       45.9
## 10 ATL   ATL vs. I~ 04/10/2019  L        240   134    43   103       41.7
## # ... with 2,450 more rows, and 15 more variables: THREE_PTM <dbl>,
## #   THREE_PTA <dbl>, THREE_PTPERCENT <dbl>, FTM <dbl>, FTA <dbl>,
## #   FT_PERCENT <dbl>, OREB <dbl>, DREB <dbl>, REB <dbl>, AST <dbl>, STL <dbl>,
## #   BLK <dbl>, TOV <dbl>, PF <dbl>, `PLUS/MINUS` <dbl>
…
It is really interesting looking at the summary of this table. From the summary I can really get a sense of how much basketball is sport with a lot of high and lot of low points. For example, in the summary of the 3 point field goal attempts the max value is 70 and the minimum value is 12. I looked through my data and found the Houston Rockets were responsible for the 70 attempts, and the Los Angeles Clippers had the lowest 3 point attempts. I also found that Houston was responsible for the top three most 3 pointers attempted that season. Almost every column features a large gap between the min and max values. Another example is the point totals. The minimum points was 68 and the max was 168. The max points came from a quadruple overtime game between the Chicago Bulls and Atlanta Hawks, so this max point value is definitely an outlier data point.

Model Planning and Building

Before I try to incorporate home court vs away factors, I want to do a general points prediction of all teams without home or away factors. I am using rebounds and assists as the variables for predicting points scored. Generally in basketball getting more rebounds means that a team is able to posses the ball more teams which leads to more opportunities to score, so based on that thought rebounds should be a solid variable to use in my model. In basketball an assist is counted when there is a pass made that directly leads to a basket getting scored, so numerically the more assists a team has than the more points they have. Also getting more assists in a game usually indicates that a team is executing their sets very well and also working really well as a team, as a result these un-trackable factors usually lead to more points being scored.

#Partitioning my test set for my model
#Data split 60 training 20 validation and 20 for testing
leftover_rows <- as.vector(createDataPartition(NBA_box_stats$PTS, p = 0.8, list = FALSE))
test_set <- NBA_box_stats[-leftover_rows, ]
leftover <- NBA_box_stats[leftover_rows, ]
leftover

## # A tibble: 1,969 x 24
##    Team  `Match Up` `Game Date` W_or_L   MIN   PTS   FGM   FGA FG_PERCENT
##    <chr> <chr>      <chr>       <chr>  <dbl> <dbl> <dbl> <dbl>      <dbl>
##  1 MEM   MEM vs. G~ 04/10/2019  W        240   132    48    98       49  
##  2 CHA   CHA vs. O~ 04/10/2019  L        240   114    41    78       52.6
##  3 MIN   MIN @ DEN  04/10/2019  L        240    95    39    91       42.9
##  4 DEN   DEN vs. M~ 04/10/2019  W        240    99    39    87       44.8
##  5 OKC   OKC @ MIL  04/10/2019  W        240   127    48    99       48.5
##  6 IND   IND @ ATL  04/10/2019  W        240   135    45    98       45.9
##  7 POR   POR vs. S~ 04/10/2019  W        240   136    53    91       58.2
##  8 UTA   UTA @ LAC  04/10/2019  L        265   137    47   106       44.3
##  9 BKN   BKN vs. M~ 04/10/2019  W        240   113    43   114       37.7
## 10 DET   DET @ NYK  04/10/2019  W        240   115    41    85       48.2
## # ... with 1,959 more rows, and 15 more variables: THREE_PTM <dbl>,
## #   THREE_PTA <dbl>, THREE_PTPERCENT <dbl>, FTM <dbl>, FTA <dbl>,
## #   FT_PERCENT <dbl>, OREB <dbl>, DREB <dbl>, REB <dbl>, AST <dbl>, STL <dbl>,
## #   BLK <dbl>, TOV <dbl>, PF <dbl>, `PLUS/MINUS` <dbl>
…
# The assists vs points graph has an expected increasing trend. Surprisingly the   
# rebounds vs points did not have as strong of a relationship as I thought, but  
# there is still an increasing trend. Free throw attempts and percentage were 
# similar to the rebound graph. The three point percentage graph showed a pretty strong 
# relationship to points, so maybe it could used as a variable in the future. 

#Creating the training and validation sets 
training_rows <- as.vector(createDataPartition(leftover$PTS, p = 0.75, list = FALSE))
validate_rows <- leftover[-training_rows, ]
training <- leftover[training_rows, ]
training

## # A tibble: 1,478 x 24
##    Team  `Match Up` `Game Date` W_or_L   MIN   PTS   FGM   FGA FG_PERCENT
##    <chr> <chr>      <chr>       <chr>  <dbl> <dbl> <dbl> <dbl>      <dbl>
##  1 MEM   MEM vs. G~ 04/10/2019  W        240   132    48    98       49  
##  2 MIN   MIN @ DEN  04/10/2019  L        240    95    39    91       42.9
##  3 DEN   DEN vs. M~ 04/10/2019  W        240    99    39    87       44.8
##  4 IND   IND @ ATL  04/10/2019  W        240   135    45    98       45.9
##  5 POR   POR vs. S~ 04/10/2019  W        240   136    53    91       58.2
##  6 UTA   UTA @ LAC  04/10/2019  L        265   137    47   106       44.3
##  7 BKN   BKN vs. M~ 04/10/2019  W        240   113    43   114       37.7
##  8 DET   DET @ NYK  04/10/2019  W        240   115    41    85       48.2
##  9 NYK   NYK vs. D~ 04/10/2019  L        240    89    31    77       40.3
## 10 CHI   CHI @ PHI  04/10/2019  L        240   109    45    95       47.4
## # ... with 1,468 more rows, and 15 more variables: THREE_PTM <dbl>,
## #   THREE_PTA <dbl>, THREE_PTPERCENT <dbl>, FTM <dbl>, FTA <dbl>,
## #   FT_PERCENT <dbl>, OREB <dbl>, DREB <dbl>, REB <dbl>, AST <dbl>, STL <dbl>,
## #   BLK <dbl>, TOV <dbl>, PF <dbl>, `PLUS/MINUS` <dbl>

validate_rows

## # A tibble: 491 x 24
##    Team  `Match Up` `Game Date` W_or_L   MIN   PTS   FGM   FGA FG_PERCENT
##    <chr> <chr>      <chr>       <chr>  <dbl> <dbl> <dbl> <dbl>      <dbl>
##  1 CHA   CHA vs. O~ 04/10/2019  L        240   114    41    78       52.6
##  2 OKC   OKC @ MIL  04/10/2019  W        240   127    48    99       48.5
##  3 PHI   PHI vs. C~ 04/10/2019  W        240   125    52    93       55.9
##  4 BOS   BOS @ WAS  04/09/2019  W        240   116    45    99       45.5
##  5 TOR   TOR @ MIN  04/09/2019  W        240   120    46    88       52.3
##  6 MIN   MIN vs. T~ 04/09/2019  L        240   100    38    91       41.8
##  7 POR   POR @ LAL  04/09/2019  W        240   104    37    90       41.1
##  8 OKC   OKC @ MIN  04/07/2019  W        240   132    48    92       52.2
##  9 ATL   ATL @ MIL  04/07/2019  L        240   107    40   100       40  
## 10 BOS   BOS vs. O~ 04/07/2019  L        240   108    42    89       47.2
## # ... with 481 more rows, and 15 more variables: THREE_PTM <dbl>,
## #   THREE_PTA <dbl>, THREE_PTPERCENT <dbl>, FTM <dbl>, FTA <dbl>,
## #   FT_PERCENT <dbl>, OREB <dbl>, DREB <dbl>, REB <dbl>, AST <dbl>, STL <dbl>,
## #   BLK <dbl>, TOV <dbl>, PF <dbl>, `PLUS/MINUS` <dbl>

#Training my model on the training set
model <- lm(PTS ~ REB + AST, data = training)

predictions <- add_predictions(validate_rows, model)
predictions

## # A tibble: 491 x 25
##    Team  `Match Up` `Game Date` W_or_L   MIN   PTS   FGM   FGA FG_PERCENT
##    <chr> <chr>      <chr>       <chr>  <dbl> <dbl> <dbl> <dbl>      <dbl>
##  1 CHA   CHA vs. O~ 04/10/2019  L        240   114    41    78       52.6
##  2 OKC   OKC @ MIL  04/10/2019  W        240   127    48    99       48.5
##  3 PHI   PHI vs. C~ 04/10/2019  W        240   125    52    93       55.9
##  4 BOS   BOS @ WAS  04/09/2019  W        240   116    45    99       45.5
##  5 TOR   TOR @ MIN  04/09/2019  W        240   120    46    88       52.3
##  6 MIN   MIN vs. T~ 04/09/2019  L        240   100    38    91       41.8
##  7 POR   POR @ LAL  04/09/2019  W        240   104    37    90       41.1
##  8 OKC   OKC @ MIN  04/07/2019  W        240   132    48    92       52.2
##  9 ATL   ATL @ MIL  04/07/2019  L        240   107    40   100       40  
## 10 BOS   BOS vs. O~ 04/07/2019  L        240   108    42    89       47.2
## # ... with 481 more rows, and 16 more variables: THREE_PTM <dbl>,
## #   THREE_PTA <dbl>, THREE_PTPERCENT <dbl>, FTM <dbl>, FTA <dbl>,
## #   FT_PERCENT <dbl>, OREB <dbl>, DREB <dbl>, REB <dbl>, AST <dbl>, STL <dbl>,
## #   BLK <dbl>, TOV <dbl>, PF <dbl>, `PLUS/MINUS` <dbl>, pred <dbl>
…
# At a glance my validation set predictions look decent. There are many points
# that are near the perfect prediction line, and there are points that fall directly on
# that line. Also there is a decently clear trend that follows the prediction line.
# However, there are also many clear outlier data values that can be seen on the graph. 

validate_resid <- add_residuals(validate_rows, model)
validate_resid

## # A tibble: 491 x 25
##    Team  `Match Up` `Game Date` W_or_L   MIN   PTS   FGM   FGA FG_PERCENT
##    <chr> <chr>      <chr>       <chr>  <dbl> <dbl> <dbl> <dbl>      <dbl>
##  1 CHA   CHA vs. O~ 04/10/2019  L        240   114    41    78       52.6
##  2 OKC   OKC @ MIL  04/10/2019  W        240   127    48    99       48.5
##  3 PHI   PHI vs. C~ 04/10/2019  W        240   125    52    93       55.9
##  4 BOS   BOS @ WAS  04/09/2019  W        240   116    45    99       45.5
##  5 TOR   TOR @ MIN  04/09/2019  W        240   120    46    88       52.3
##  6 MIN   MIN vs. T~ 04/09/2019  L        240   100    38    91       41.8
##  7 POR   POR @ LAL  04/09/2019  W        240   104    37    90       41.1
##  8 OKC   OKC @ MIN  04/07/2019  W        240   132    48    92       52.2
##  9 ATL   ATL @ MIL  04/07/2019  L        240   107    40   100       40  
## 10 BOS   BOS vs. O~ 04/07/2019  L        240   108    42    89       47.2
## # ... with 481 more rows, and 16 more variables: THREE_PTM <dbl>,
## #   THREE_PTA <dbl>, THREE_PTPERCENT <dbl>, FTM <dbl>, FTA <dbl>,
## #   FT_PERCENT <dbl>, OREB <dbl>, DREB <dbl>, REB <dbl>, AST <dbl>, STL <dbl>,
## #   BLK <dbl>, TOV <dbl>, PF <dbl>, `PLUS/MINUS` <dbl>, resid <dbl>
…
predictions <- add_predictions(test_set, model)
predictions

## # A tibble: 491 x 25
##    Team  `Match Up` `Game Date` W_or_L   MIN   PTS   FGM   FGA FG_PERCENT
##    <chr> <chr>      <chr>       <chr>  <dbl> <dbl> <dbl> <dbl>      <dbl>
##  1 GSW   GSW @ MEM  04/10/2019  L        240   117    46    92       50  
##  2 ORL   ORL @ CHA  04/10/2019  W        240   122    48    88       54.5
##  3 MIL   MIL vs. O~ 04/10/2019  L        240   116    43   100       43  
##  4 ATL   ATL vs. I~ 04/10/2019  L        240   134    43   103       41.7
##  5 SAC   SAC @ POR  04/10/2019  L        240   131    50    96       52.1
##  6 LAC   LAC vs. U~ 04/10/2019  W        265   143    54   106       50.9
##  7 MIA   MIA @ BKN  04/10/2019  L        240    94    38    98       38.8
##  8 SAS   SAS vs. D~ 04/10/2019  W        240   105    41    88       46.6
##  9 DAL   DAL @ SAS  04/10/2019  L        240    94    37    91       40.7
## 10 NOP   NOP vs. G~ 04/09/2019  L        240   103    44    99       44.4
## # ... with 481 more rows, and 16 more variables: THREE_PTM <dbl>,
## #   THREE_PTA <dbl>, THREE_PTPERCENT <dbl>, FTM <dbl>, FTA <dbl>,
## #   FT_PERCENT <dbl>, OREB <dbl>, DREB <dbl>, REB <dbl>, AST <dbl>, STL <dbl>,
## #   BLK <dbl>, TOV <dbl>, PF <dbl>, `PLUS/MINUS` <dbl>, pred <dbl>
…
test_resids <- add_residuals(test_set, model)
test_resids

## # A tibble: 491 x 25
##    Team  `Match Up` `Game Date` W_or_L   MIN   PTS   FGM   FGA FG_PERCENT
##    <chr> <chr>      <chr>       <chr>  <dbl> <dbl> <dbl> <dbl>      <dbl>
##  1 GSW   GSW @ MEM  04/10/2019  L        240   117    46    92       50  
##  2 ORL   ORL @ CHA  04/10/2019  W        240   122    48    88       54.5
##  3 MIL   MIL vs. O~ 04/10/2019  L        240   116    43   100       43  
##  4 ATL   ATL vs. I~ 04/10/2019  L        240   134    43   103       41.7
##  5 SAC   SAC @ POR  04/10/2019  L        240   131    50    96       52.1
##  6 LAC   LAC vs. U~ 04/10/2019  W        265   143    54   106       50.9
##  7 MIA   MIA @ BKN  04/10/2019  L        240    94    38    98       38.8
##  8 SAS   SAS vs. D~ 04/10/2019  W        240   105    41    88       46.6
##  9 DAL   DAL @ SAS  04/10/2019  L        240    94    37    91       40.7
## 10 NOP   NOP vs. G~ 04/09/2019  L        240   103    44    99       44.4
## # ... with 481 more rows, and 16 more variables: THREE_PTM <dbl>,
## #   THREE_PTA <dbl>, THREE_PTPERCENT <dbl>, FTM <dbl>, FTA <dbl>,
## #   FT_PERCENT <dbl>, OREB <dbl>, DREB <dbl>, REB <dbl>, AST <dbl>, STL <dbl>,
## #   BLK <dbl>, TOV <dbl>, PF <dbl>, `PLUS/MINUS` <dbl>, resid <dbl>
…
