deliverable3
…
Home_games <- NBA_box_stats %>% filter(str_detect(Match_Up, 'vs.'))
Away_games <- NBA_box_stats %>% filter(str_detect(Match_Up, '@'))

Home_games$Status <- paste("H")
Away_games$Status <- paste("A")

NBA_box_stats <- as_tibble(merge(Home_games, Away_games, all = TRUE))

Home_games

## # A tibble: 1,230 x 25
##    Team  Match_Up Game_Date W_or_L   MIN   PTS   FGM   FGA FG_PERCENT THREE_PTM
##    <chr> <chr>    <chr>     <chr>  <dbl> <dbl> <dbl> <dbl>      <dbl>     <dbl>
##  1 MEM   MEM vs.~ 04/10/20~ W        240   132    48    98       49          21
##  2 CHA   CHA vs.~ 04/10/20~ L        240   114    41    78       52.6         8
##  3 DEN   DEN vs.~ 04/10/20~ W        240    99    39    87       44.8        10
##  4 MIL   MIL vs.~ 04/10/20~ L        240   116    43   100       43          15
##  5 ATL   ATL vs.~ 04/10/20~ L        240   134    43   103       41.7        17
##  6 POR   POR vs.~ 04/10/20~ W        240   136    53    91       58.2        14
##  7 LAC   LAC vs.~ 04/10/20~ W        265   143    54   106       50.9        12
##  8 BKN   BKN vs.~ 04/10/20~ W        240   113    43   114       37.7        21
##  9 NYK   NYK vs.~ 04/10/20~ L        240    89    31    77       40.3         9
## 10 SAS   SAS vs.~ 04/10/20~ W        240   105    41    88       46.6         8
## # ... with 1,220 more rows, and 15 more variables: THREE_PTA <dbl>,
## #   THREE_PTPERCENT <dbl>, FTM <dbl>, FTA <dbl>, FT_PERCENT <dbl>, OREB <dbl>,
## #   DREB <dbl>, REB <dbl>, AST <dbl>, STL <dbl>, BLK <dbl>, TOV <dbl>,
## #   PF <dbl>, `PLUS/MINUS` <dbl>, Status <chr>
…
Away_games

## # A tibble: 1,230 x 25
##    Team  Match_Up Game_Date W_or_L   MIN   PTS   FGM   FGA FG_PERCENT THREE_PTM
##    <chr> <chr>    <chr>     <chr>  <dbl> <dbl> <dbl> <dbl>      <dbl>     <dbl>
##  1 GSW   GSW @ M~ 04/10/20~ L        240   117    46    92       50          13
##  2 ORL   ORL @ C~ 04/10/20~ W        240   122    48    88       54.5        11
##  3 MIN   MIN @ D~ 04/10/20~ L        240    95    39    91       42.9        13
##  4 OKC   OKC @ M~ 04/10/20~ W        240   127    48    99       48.5        23
##  5 IND   IND @ A~ 04/10/20~ W        240   135    45    98       45.9        12
##  6 SAC   SAC @ P~ 04/10/20~ L        240   131    50    96       52.1        18
##  7 UTA   UTA @ L~ 04/10/20~ L        265   137    47   106       44.3        14
##  8 MIA   MIA @ B~ 04/10/20~ L        240    94    38    98       38.8         8
##  9 DET   DET @ N~ 04/10/20~ W        240   115    41    85       48.2        14
## 10 DAL   DAL @ S~ 04/10/20~ L        240    94    37    91       40.7        11
## # ... with 1,220 more rows, and 15 more variables: THREE_PTA <dbl>,
## #   THREE_PTPERCENT <dbl>, FTM <dbl>, FTA <dbl>, FT_PERCENT <dbl>, OREB <dbl>,
## #   DREB <dbl>, REB <dbl>, AST <dbl>, STL <dbl>, BLK <dbl>, TOV <dbl>,
## #   PF <dbl>, `PLUS/MINUS` <dbl>, Status <chr>
…
The first graph displays field goal percentage vs points scored; visually there is definitely an upwards trend between the two variables. The second graph is a plot between field goal attempts and field goal percentage; there is not a very clear correlation between the two, but it is important to note that after the 100 fga mark there are not many values that are above 50 percent in terms of the shooting percentage. Also the really high field goal percentage values occured mainly when a team took less than about 100 fgas.

To try and improve the performance of my previous model I decided to try and also incorporate field goal percentage.

#Partitioning my test set for my model
#Data split 60 training 20 validation and 20 for testing
leftover_rows <- as.vector(createDataPartition(NBA_box_stats$PTS, p = 0.8, list = FALSE))
test_set <- NBA_box_stats[-leftover_rows, ]
leftover <- NBA_box_stats[leftover_rows, ]
leftover

## # A tibble: 1,969 x 25
##    Team  Match_Up Game_Date W_or_L   MIN   PTS   FGM   FGA FG_PERCENT THREE_PTM
##    <chr> <chr>    <chr>     <chr>  <dbl> <dbl> <dbl> <dbl>      <dbl>     <dbl>
##  1 ATL   ATL @ B~ 01/09/20~ L        240   100    36    99       36.4         6
##  2 ATL   ATL @ B~ 12/16/20~ L        240   127    47    85       55.3        14
##  3 ATL   ATL @ C~ 11/06/20~ L        240   102    41    85       48.2         6
##  4 ATL   ATL @ C~ 03/03/20~ W        240   123    42    89       47.2        21
##  5 ATL   ATL @ C~ 10/21/20~ W        240   133    48    98       49          22
##  6 ATL   ATL @ C~ 10/30/20~ L        240   114    44    82       53.7        15
##  7 ATL   ATL @ D~ 12/12/20~ L        240   107    43    93       46.2        11
##  8 ATL   ATL @ D~ 11/15/20~ L        240    93    32    92       34.8         9
##  9 ATL   ATL @ H~ 02/25/20~ L        240   111    39    80       48.8        17
## 10 ATL   ATL @ I~ 11/17/20~ L        240    89    31    87       35.6         8
## # ... with 1,959 more rows, and 15 more variables: THREE_PTA <dbl>,
## #   THREE_PTPERCENT <dbl>, FTM <dbl>, FTA <dbl>, FT_PERCENT <dbl>, OREB <dbl>,
## #   DREB <dbl>, REB <dbl>, AST <dbl>, STL <dbl>, BLK <dbl>, TOV <dbl>,
## #   PF <dbl>, `PLUS/MINUS` <dbl>, Status <chr>

#Creating the training and validation sets 
training_rows <- as.vector(createDataPartition(leftover$PTS, p = 0.75, list = FALSE))
validate_rows <- leftover[-training_rows, ]
training <- leftover[training_rows, ]
training

## # A tibble: 1,478 x 25
##    Team  Match_Up Game_Date W_or_L   MIN   PTS   FGM   FGA FG_PERCENT THREE_PTM
##    <chr> <chr>    <chr>     <chr>  <dbl> <dbl> <dbl> <dbl>      <dbl>     <dbl>
##  1 ATL   ATL @ B~ 01/09/20~ L        240   100    36    99       36.4         6
##  2 ATL   ATL @ B~ 12/16/20~ L        240   127    47    85       55.3        14
##  3 ATL   ATL @ C~ 11/06/20~ L        240   102    41    85       48.2         6
##  4 ATL   ATL @ C~ 10/21/20~ W        240   133    48    98       49          22
##  5 ATL   ATL @ D~ 12/12/20~ L        240   107    43    93       46.2        11
##  6 ATL   ATL @ D~ 11/15/20~ L        240    93    32    92       34.8         9
##  7 ATL   ATL @ H~ 02/25/20~ L        240   111    39    80       48.8        17
##  8 ATL   ATL @ M~ 03/04/20~ L        240   113    38    91       41.8        17
##  9 ATL   ATL @ M~ 11/27/20~ W        240   115    38    80       47.5        12
## 10 ATL   ATL @ M~ 01/04/20~ L        240   112    37    85       43.5        14
## # ... with 1,468 more rows, and 15 more variables: THREE_PTA <dbl>,
## #   THREE_PTPERCENT <dbl>, FTM <dbl>, FTA <dbl>, FT_PERCENT <dbl>, OREB <dbl>,
## #   DREB <dbl>, REB <dbl>, AST <dbl>, STL <dbl>, BLK <dbl>, TOV <dbl>,
## #   PF <dbl>, `PLUS/MINUS` <dbl>, Status <chr>

validate_rows

## # A tibble: 491 x 25
##    Team  Match_Up Game_Date W_or_L   MIN   PTS   FGM   FGA FG_PERCENT THREE_PTM
##    <chr> <chr>    <chr>     <chr>  <dbl> <dbl> <dbl> <dbl>      <dbl>     <dbl>
##  1 ATL   ATL @ C~ 03/03/20~ W        240   123    42    89       47.2        21
##  2 ATL   ATL @ C~ 10/30/20~ L        240   114    44    82       53.7        15
##  3 ATL   ATL @ I~ 11/17/20~ L        240    89    31    87       35.6         8
##  4 ATL   ATL @ N~ 10/17/20~ L        240   107    41    90       45.6        10
##  5 ATL   ATL @ O~ 04/05/20~ L        240   113    41    94       43.6        10
##  6 ATL   ATL @ P~ 02/02/20~ W        240   118    43    84       51.2        14
##  7 ATL   ATL @ P~ 01/26/20~ L        240   111    42    92       45.7        12
##  8 ATL   ATL vs.~ 11/25/20~ W        240   124    50    94       53.2        16
##  9 ATL   ATL vs.~ 10/24/20~ W        240   111    37    91       40.7        15
## 10 ATL   ATL vs.~ 03/13/20~ W        240   132    52   103       50.5        17
## # ... with 481 more rows, and 15 more variables: THREE_PTA <dbl>,
## #   THREE_PTPERCENT <dbl>, FTM <dbl>, FTA <dbl>, FT_PERCENT <dbl>, OREB <dbl>,
## #   DREB <dbl>, REB <dbl>, AST <dbl>, STL <dbl>, BLK <dbl>, TOV <dbl>,
## #   PF <dbl>, `PLUS/MINUS` <dbl>, Status <chr>

#Training my model on the training set
model <- lm(PTS ~ FG_PERCENT + REB + AST, data = training)

predictions <- add_predictions(validate_rows, model)
predictions

## # A tibble: 491 x 26
##    Team  Match_Up Game_Date W_or_L   MIN   PTS   FGM   FGA FG_PERCENT THREE_PTM
##    <chr> <chr>    <chr>     <chr>  <dbl> <dbl> <dbl> <dbl>      <dbl>     <dbl>
##  1 ATL   ATL @ C~ 03/03/20~ W        240   123    42    89       47.2        21
##  2 ATL   ATL @ C~ 10/30/20~ L        240   114    44    82       53.7        15
##  3 ATL   ATL @ I~ 11/17/20~ L        240    89    31    87       35.6         8
##  4 ATL   ATL @ N~ 10/17/20~ L        240   107    41    90       45.6        10
##  5 ATL   ATL @ O~ 04/05/20~ L        240   113    41    94       43.6        10
##  6 ATL   ATL @ P~ 02/02/20~ W        240   118    43    84       51.2        14
##  7 ATL   ATL @ P~ 01/26/20~ L        240   111    42    92       45.7        12
##  8 ATL   ATL vs.~ 11/25/20~ W        240   124    50    94       53.2        16
##  9 ATL   ATL vs.~ 10/24/20~ W        240   111    37    91       40.7        15
## 10 ATL   ATL vs.~ 03/13/20~ W        240   132    52   103       50.5        17
## # ... with 481 more rows, and 16 more variables: THREE_PTA <dbl>,
## #   THREE_PTPERCENT <dbl>, FTM <dbl>, FTA <dbl>, FT_PERCENT <dbl>, OREB <dbl>,
## #   DREB <dbl>, REB <dbl>, AST <dbl>, STL <dbl>, BLK <dbl>, TOV <dbl>,
## #   PF <dbl>, `PLUS/MINUS` <dbl>, Status <chr>, pred <dbl>
…
validate_resid <- add_residuals(validate_rows, model)
validate_resid

## # A tibble: 491 x 26
##    Team  Match_Up Game_Date W_or_L   MIN   PTS   FGM   FGA FG_PERCENT THREE_PTM
##    <chr> <chr>    <chr>     <chr>  <dbl> <dbl> <dbl> <dbl>      <dbl>     <dbl>
##  1 ATL   ATL @ C~ 03/03/20~ W        240   123    42    89       47.2        21
##  2 ATL   ATL @ C~ 10/30/20~ L        240   114    44    82       53.7        15
##  3 ATL   ATL @ I~ 11/17/20~ L        240    89    31    87       35.6         8
##  4 ATL   ATL @ N~ 10/17/20~ L        240   107    41    90       45.6        10
##  5 ATL   ATL @ O~ 04/05/20~ L        240   113    41    94       43.6        10
##  6 ATL   ATL @ P~ 02/02/20~ W        240   118    43    84       51.2        14
##  7 ATL   ATL @ P~ 01/26/20~ L        240   111    42    92       45.7        12
##  8 ATL   ATL vs.~ 11/25/20~ W        240   124    50    94       53.2        16
##  9 ATL   ATL vs.~ 10/24/20~ W        240   111    37    91       40.7        15
## 10 ATL   ATL vs.~ 03/13/20~ W        240   132    52   103       50.5        17
## # ... with 481 more rows, and 16 more variables: THREE_PTA <dbl>,
## #   THREE_PTPERCENT <dbl>, FTM <dbl>, FTA <dbl>, FT_PERCENT <dbl>, OREB <dbl>,
## #   DREB <dbl>, REB <dbl>, AST <dbl>, STL <dbl>, BLK <dbl>, TOV <dbl>,
## #   PF <dbl>, `PLUS/MINUS` <dbl>, Status <chr>, resid <dbl>
…
predictions <- add_predictions(test_set, model)
predictions

## # A tibble: 491 x 26
##    Team  Match_Up Game_Date W_or_L   MIN   PTS   FGM   FGA FG_PERCENT THREE_PTM
##    <chr> <chr>    <chr>     <chr>  <dbl> <dbl> <dbl> <dbl>      <dbl>     <dbl>
##  1 ATL   ATL @ B~ 03/16/20~ L        240   120    43   100       43          15
##  2 ATL   ATL @ B~ 12/14/20~ L        240   108    36    86       41.9        16
##  3 ATL   ATL @ C~ 11/28/20~ L        240    94    32    93       34.4        11
##  4 ATL   ATL @ C~ 01/23/20~ W        240   121    45    90       50          15
##  5 ATL   ATL @ D~ 12/23/20~ W        240    98    36    91       39.6         6
##  6 ATL   ATL @ G~ 11/13/20~ L        240   103    40    89       44.9        12
##  7 ATL   ATL @ I~ 12/31/20~ L        240   108    41    95       43.2        13
##  8 ATL   ATL @ L~ 01/28/20~ W        240   123    44    87       50.6        10
##  9 ATL   ATL @ L~ 11/11/20~ L        240   106    41    95       43.2        13
## 10 ATL   ATL @ M~ 10/19/20~ L        240   117    41    83       49.4        14
## # ... with 481 more rows, and 16 more variables: THREE_PTA <dbl>,
## #   THREE_PTPERCENT <dbl>, FTM <dbl>, FTA <dbl>, FT_PERCENT <dbl>, OREB <dbl>,
## #   DREB <dbl>, REB <dbl>, AST <dbl>, STL <dbl>, BLK <dbl>, TOV <dbl>,
## #   PF <dbl>, `PLUS/MINUS` <dbl>, Status <chr>, pred <dbl>
…
test_resids <- add_residuals(test_set, model)
test_resids

## # A tibble: 491 x 26
##    Team  Match_Up Game_Date W_or_L   MIN   PTS   FGM   FGA FG_PERCENT THREE_PTM
##    <chr> <chr>    <chr>     <chr>  <dbl> <dbl> <dbl> <dbl>      <dbl>     <dbl>
##  1 ATL   ATL @ B~ 03/16/20~ L        240   120    43   100       43          15
##  2 ATL   ATL @ B~ 12/14/20~ L        240   108    36    86       41.9        16
##  3 ATL   ATL @ C~ 11/28/20~ L        240    94    32    93       34.4        11
##  4 ATL   ATL @ C~ 01/23/20~ W        240   121    45    90       50          15
##  5 ATL   ATL @ D~ 12/23/20~ W        240    98    36    91       39.6         6
##  6 ATL   ATL @ G~ 11/13/20~ L        240   103    40    89       44.9        12
##  7 ATL   ATL @ I~ 12/31/20~ L        240   108    41    95       43.2        13
##  8 ATL   ATL @ L~ 01/28/20~ W        240   123    44    87       50.6        10
##  9 ATL   ATL @ L~ 11/11/20~ L        240   106    41    95       43.2        13
## 10 ATL   ATL @ M~ 10/19/20~ L        240   117    41    83       49.4        14
## # ... with 481 more rows, and 16 more variables: THREE_PTA <dbl>,
## #   THREE_PTPERCENT <dbl>, FTM <dbl>, FTA <dbl>, FT_PERCENT <dbl>, OREB <dbl>,
## #   DREB <dbl>, REB <dbl>, AST <dbl>, STL <dbl>, BLK <dbl>, TOV <dbl>,
## #   PF <dbl>, `PLUS/MINUS` <dbl>, Status <chr>, resid <dbl>
…
